{
    "version": "https://jsonfeed.org/version/1",
    "title": "Lar de Jesus Misericordioso",
    "description": "",
    "home_page_url": "https://www.larjm.com",
    "feed_url": "https://www.larjm.com/feed.json",
    "user_comment": "",
    "icon": "https://www.larjm.com/media/website/Logo_Lar_D_NoBackground.jpg",
    "author": {
        "name": "Joel Pacheco"
    },
    "items": [
        {
            "id": "https://www.larjm.com/18a-edicao-jornal-do-lar-o-girassol-10-3.html",
            "url": "https://www.larjm.com/18a-edicao-jornal-do-lar-o-girassol-10-3.html",
            "title": "29ª Edição Jornal do Lar - O Girassol",
            "content_html": "<div class=\"gallery-wrapper\"><div class=\"gallery\"  data-is-empty=\"false\" data-columns=\"2\">\n<figure class=\"gallery__item\"><a href=\"https://www.larjm.com/media/posts/34/gallery/Diapositivo1-2.PNG\" data-size=\"1008x1344\"><img loading=\"lazy\" src=\"https://www.larjm.com/media/posts/34/gallery/Diapositivo1-2-thumbnail.PNG\" alt=\"\" width=\"768\" height=\"1024\"></a></figure>\n<figure class=\"gallery__item\"><a href=\"https://www.larjm.com/media/posts/34/gallery/Diapositivo2-2.PNG\" data-size=\"1008x1344\"><img loading=\"lazy\" src=\"https://www.larjm.com/media/posts/34/gallery/Diapositivo2-2-thumbnail.PNG\" alt=\"\" width=\"768\" height=\"1024\"></a></figure>\n<figure class=\"gallery__item\"><a href=\"https://www.larjm.com/media/posts/34/gallery/Diapositivo3-2.PNG\" data-size=\"1008x1344\"><img loading=\"lazy\" src=\"https://www.larjm.com/media/posts/34/gallery/Diapositivo3-2-thumbnail.PNG\" alt=\"\" width=\"768\" height=\"1024\"></a></figure>\n<figure class=\"gallery__item\"><a href=\"https://www.larjm.com/media/posts/34/gallery/Diapositivo4-2.PNG\" data-size=\"1008x1344\"><img loading=\"lazy\" src=\"https://www.larjm.com/media/posts/34/gallery/Diapositivo4-2-thumbnail.PNG\" alt=\"\" width=\"768\" height=\"1024\"></a></figure>\n</div></div>",
            "author": {
                "name": "Joel Pacheco"
            },
            "tags": [
                   "Jornal O Girassol"
            ],
            "date_published": "2022-03-31T20:29:00+01:00",
            "date_modified": "2022-05-01T20:30:30+01:00"
        },
        {
            "id": "https://www.larjm.com/18a-edicao-jornal-do-lar-o-girassol-10-2.html",
            "url": "https://www.larjm.com/18a-edicao-jornal-do-lar-o-girassol-10-2.html",
            "title": "28ª Edição Jornal do Lar - O Girassol",
            "content_html": "<div class=\"gallery-wrapper\"><div class=\"gallery\"  data-is-empty=\"false\" data-columns=\"2\">\n<figure class=\"gallery__item\"><a href=\"https://www.larjm.com/media/posts/33/gallery/Diapositivo1.PNG\" data-size=\"1008x1344\"><img loading=\"lazy\" src=\"https://www.larjm.com/media/posts/33/gallery/Diapositivo1-thumbnail.PNG\" alt=\"\" width=\"768\" height=\"1024\"></a></figure>\n<figure class=\"gallery__item\"><a href=\"https://www.larjm.com/media/posts/33/gallery/Diapositivo2.PNG\" data-size=\"1008x1344\"><img loading=\"lazy\" src=\"https://www.larjm.com/media/posts/33/gallery/Diapositivo2-thumbnail.PNG\" alt=\"\" width=\"768\" height=\"1024\"></a></figure>\n<figure class=\"gallery__item\"><a href=\"https://www.larjm.com/media/posts/33/gallery/Diapositivo3.PNG\" data-size=\"1008x1344\"><img loading=\"lazy\" src=\"https://www.larjm.com/media/posts/33/gallery/Diapositivo3-thumbnail.PNG\" alt=\"\" width=\"768\" height=\"1024\"></a></figure>\n<figure class=\"gallery__item\"><a href=\"https://www.larjm.com/media/posts/33/gallery/Diapositivo4.PNG\" data-size=\"1008x1344\"><img loading=\"lazy\" src=\"https://www.larjm.com/media/posts/33/gallery/Diapositivo4-thumbnail.PNG\" alt=\"\" width=\"768\" height=\"1024\"></a></figure>\n</div></div>",
            "author": {
                "name": "Joel Pacheco"
            },
            "tags": [
                   "Jornal O Girassol"
            ],
            "date_published": "2021-12-31T20:28:00+00:00",
            "date_modified": "2022-05-01T20:29:32+01:00"
        },
        {
            "id": "https://www.larjm.com/18a-edicao-jornal-do-lar-o-girassol-10.html",
            "url": "https://www.larjm.com/18a-edicao-jornal-do-lar-o-girassol-10.html",
            "title": "27ª Edição Jornal do Lar - O Girassol",
            "content_html": "<div class=\"gallery-wrapper\"><div class=\"gallery\"  data-is-empty=\"false\" data-columns=\"2\">\n<figure class=\"gallery__item\"><a href=\"https://www.larjm.com/media/posts/32/gallery/Diapositivo1-2.PNG\" data-size=\"1008x1344\"><img loading=\"lazy\" src=\"https://www.larjm.com/media/posts/32/gallery/Diapositivo1-2-thumbnail.PNG\" alt=\"\" width=\"768\" height=\"1024\"></a></figure>\n<figure class=\"gallery__item\"><a href=\"https://www.larjm.com/media/posts/32/gallery/Diapositivo2-2.PNG\" data-size=\"1008x1344\"><img loading=\"lazy\" src=\"https://www.larjm.com/media/posts/32/gallery/Diapositivo2-2-thumbnail.PNG\" alt=\"\" width=\"768\" height=\"1024\"></a></figure>\n<figure class=\"gallery__item\"><a href=\"https://www.larjm.com/media/posts/32/gallery/Diapositivo3-2.PNG\" data-size=\"1008x1344\"><img loading=\"lazy\" src=\"https://www.larjm.com/media/posts/32/gallery/Diapositivo3-2-thumbnail.PNG\" alt=\"\" width=\"768\" height=\"1024\"></a></figure>\n<figure class=\"gallery__item\"><a href=\"https://www.larjm.com/media/posts/32/gallery/Diapositivo4-2.PNG\" data-size=\"1008x1344\"><img loading=\"lazy\" src=\"https://www.larjm.com/media/posts/32/gallery/Diapositivo4-2-thumbnail.PNG\" alt=\"\" width=\"768\" height=\"1024\"></a></figure>\n</div></div>",
            "author": {
                "name": "Joel Pacheco"
            },
            "tags": [
                   "Jornal O Girassol"
            ],
            "date_published": "2021-09-30T20:27:00+01:00",
            "date_modified": "2022-05-01T20:28:32+01:00"
        },
        {
            "id": "https://www.larjm.com/18a-edicao-jornal-do-lar-o-girassol-9.html",
            "url": "https://www.larjm.com/18a-edicao-jornal-do-lar-o-girassol-9.html",
            "title": "26ª Edição Jornal do Lar - O Girassol",
            "content_html": "<div class=\"gallery-wrapper\"><div class=\"gallery\"  data-is-empty=\"false\" data-columns=\"2\">\n<figure class=\"gallery__item\"><a href=\"https://www.larjm.com/media/posts/31/gallery/Diapositivo1.PNG\" data-size=\"1008x1344\"><img loading=\"lazy\" src=\"https://www.larjm.com/media/posts/31/gallery/Diapositivo1-thumbnail.PNG\" alt=\"\" width=\"768\" height=\"1024\"></a></figure>\n<figure class=\"gallery__item\"><a href=\"https://www.larjm.com/media/posts/31/gallery/Diapositivo2.PNG\" data-size=\"1008x1344\"><img loading=\"lazy\" src=\"https://www.larjm.com/media/posts/31/gallery/Diapositivo2-thumbnail.PNG\" alt=\"\" width=\"768\" height=\"1024\"></a></figure>\n<figure class=\"gallery__item\"><a href=\"https://www.larjm.com/media/posts/31/gallery/Diapositivo3.PNG\" data-size=\"1008x1344\"><img loading=\"lazy\" src=\"https://www.larjm.com/media/posts/31/gallery/Diapositivo3-thumbnail.PNG\" alt=\"\" width=\"768\" height=\"1024\"></a></figure>\n<figure class=\"gallery__item\"><a href=\"https://www.larjm.com/media/posts/31/gallery/Diapositivo4.PNG\" data-size=\"1008x1344\"><img loading=\"lazy\" src=\"https://www.larjm.com/media/posts/31/gallery/Diapositivo4-thumbnail.PNG\" alt=\"\" width=\"768\" height=\"1024\"></a></figure>\n</div></div>",
            "author": {
                "name": "Joel Pacheco"
            },
            "tags": [
                   "Jornal O Girassol"
            ],
            "date_published": "2021-06-30T20:26:00+01:00",
            "date_modified": "2022-05-01T20:27:31+01:00"
        },
        {
            "id": "https://www.larjm.com/18a-edicao-jornal-do-lar-o-girassol-8.html",
            "url": "https://www.larjm.com/18a-edicao-jornal-do-lar-o-girassol-8.html",
            "title": "25ª Edição Jornal do Lar - O Girassol",
            "content_html": "<div class=\"gallery-wrapper\"><div class=\"gallery\"  data-is-empty=\"false\" data-columns=\"2\">\n<figure class=\"gallery__item\"><a href=\"https://www.larjm.com/media/posts/30/gallery/Diapositivo1-2.PNG\" data-size=\"1008x1344\"><img loading=\"lazy\" src=\"https://www.larjm.com/media/posts/30/gallery/Diapositivo1-2-thumbnail.PNG\" alt=\"\" width=\"768\" height=\"1024\"></a></figure>\n<figure class=\"gallery__item\"><a href=\"https://www.larjm.com/media/posts/30/gallery/Diapositivo2-2.PNG\" data-size=\"1008x1344\"><img loading=\"lazy\" src=\"https://www.larjm.com/media/posts/30/gallery/Diapositivo2-2-thumbnail.PNG\" alt=\"\" width=\"768\" height=\"1024\"></a></figure>\n<figure class=\"gallery__item\"><a href=\"https://www.larjm.com/media/posts/30/gallery/Diapositivo3-2.PNG\" data-size=\"1008x1344\"><img loading=\"lazy\" src=\"https://www.larjm.com/media/posts/30/gallery/Diapositivo3-2-thumbnail.PNG\" alt=\"\" width=\"768\" height=\"1024\"></a></figure>\n<figure class=\"gallery__item\"><a href=\"https://www.larjm.com/media/posts/30/gallery/Diapositivo4-2.PNG\" data-size=\"1008x1344\"><img loading=\"lazy\" src=\"https://www.larjm.com/media/posts/30/gallery/Diapositivo4-2-thumbnail.PNG\" alt=\"\" width=\"768\" height=\"1024\"></a></figure>\n</div></div>",
            "author": {
                "name": "Joel Pacheco"
            },
            "tags": [
                   "Jornal O Girassol"
            ],
            "date_published": "2021-03-31T20:25:00+01:00",
            "date_modified": "2022-05-01T20:26:17+01:00"
        },
        {
            "id": "https://www.larjm.com/18a-edicao-jornal-do-lar-o-girassol-7.html",
            "url": "https://www.larjm.com/18a-edicao-jornal-do-lar-o-girassol-7.html",
            "title": "24ª Edição Jornal do Lar - O Girassol",
            "content_html": "<div class=\"gallery-wrapper\"><div class=\"gallery\"  data-is-empty=\"false\" data-columns=\"2\">\n<figure class=\"gallery__item\"><a href=\"https://www.larjm.com/media/posts/29/gallery/Diapositivo1.PNG\" data-size=\"1008x1344\"><img loading=\"lazy\" src=\"https://www.larjm.com/media/posts/29/gallery/Diapositivo1-thumbnail.PNG\" alt=\"\" width=\"768\" height=\"1024\"></a></figure>\n<figure class=\"gallery__item\"><a href=\"https://www.larjm.com/media/posts/29/gallery/Diapositivo2.PNG\" data-size=\"1008x1344\"><img loading=\"lazy\" src=\"https://www.larjm.com/media/posts/29/gallery/Diapositivo2-thumbnail.PNG\" alt=\"\" width=\"768\" height=\"1024\"></a></figure>\n<figure class=\"gallery__item\"><a href=\"https://www.larjm.com/media/posts/29/gallery/Diapositivo3.PNG\" data-size=\"1008x1344\"><img loading=\"lazy\" src=\"https://www.larjm.com/media/posts/29/gallery/Diapositivo3-thumbnail.PNG\" alt=\"\" width=\"768\" height=\"1024\"></a></figure>\n<figure class=\"gallery__item\"><a href=\"https://www.larjm.com/media/posts/29/gallery/Diapositivo4.PNG\" data-size=\"1008x1344\"><img loading=\"lazy\" src=\"https://www.larjm.com/media/posts/29/gallery/Diapositivo4-thumbnail.PNG\" alt=\"\" width=\"768\" height=\"1024\"></a></figure>\n<figure class=\"gallery__item\"><a href=\"https://www.larjm.com/media/posts/29/gallery/Diapositivo5.PNG\" data-size=\"1008x1344\"><img loading=\"lazy\" src=\"https://www.larjm.com/media/posts/29/gallery/Diapositivo5-thumbnail.PNG\" alt=\"\" width=\"768\" height=\"1024\"></a></figure>\n<figure class=\"gallery__item\"><a href=\"https://www.larjm.com/media/posts/29/gallery/Diapositivo6.PNG\" data-size=\"1008x1344\"><img loading=\"lazy\" src=\"https://www.larjm.com/media/posts/29/gallery/Diapositivo6-thumbnail.PNG\" alt=\"\" width=\"768\" height=\"1024\"></a></figure>\n</div></div>",
            "author": {
                "name": "Joel Pacheco"
            },
            "tags": [
                   "Jornal O Girassol"
            ],
            "date_published": "2020-12-31T19:55:00+00:00",
            "date_modified": "2022-05-01T19:58:42+01:00"
        },
        {
            "id": "https://www.larjm.com/18a-edicao-jornal-do-lar-o-girassol-6.html",
            "url": "https://www.larjm.com/18a-edicao-jornal-do-lar-o-girassol-6.html",
            "title": "23ª Edição Jornal do Lar - O Girassol",
            "content_html": "<div class=\"gallery-wrapper\"><div class=\"gallery\"  data-is-empty=\"false\" data-columns=\"2\">\n<figure class=\"gallery__item\"><a href=\"https://www.larjm.com/media/posts/28/gallery/Slide1.PNG\" data-size=\"1008x1344\"><img loading=\"lazy\" src=\"https://www.larjm.com/media/posts/28/gallery/Slide1-thumbnail.PNG\" alt=\"\" width=\"768\" height=\"1024\"></a></figure>\n<figure class=\"gallery__item\"><a href=\"https://www.larjm.com/media/posts/28/gallery/Slide2.PNG\" data-size=\"1008x1344\"><img loading=\"lazy\" src=\"https://www.larjm.com/media/posts/28/gallery/Slide2-thumbnail.PNG\" alt=\"\" width=\"768\" height=\"1024\"></a></figure>\n<figure class=\"gallery__item\"><a href=\"https://www.larjm.com/media/posts/28/gallery/Slide3.PNG\" data-size=\"1008x1344\"><img loading=\"lazy\" src=\"https://www.larjm.com/media/posts/28/gallery/Slide3-thumbnail.PNG\" alt=\"\" width=\"768\" height=\"1024\"></a></figure>\n<figure class=\"gallery__item\"><a href=\"https://www.larjm.com/media/posts/28/gallery/Slide4.PNG\" data-size=\"1008x1344\"><img loading=\"lazy\" src=\"https://www.larjm.com/media/posts/28/gallery/Slide4-thumbnail.PNG\" alt=\"\" width=\"768\" height=\"1024\"></a></figure>\n</div></div>",
            "author": {
                "name": "Joel Pacheco"
            },
            "tags": [
                   "Jornal O Girassol"
            ],
            "date_published": "2020-09-30T22:42:00+01:00",
            "date_modified": "2022-05-01T19:55:18+01:00"
        },
        {
            "id": "https://www.larjm.com/18a-edicao-jornal-do-lar-o-girassol-5.html",
            "url": "https://www.larjm.com/18a-edicao-jornal-do-lar-o-girassol-5.html",
            "title": "22ª Edição Jornal do Lar - O Girassol",
            "content_html": "<div class=\"gallery-wrapper\"><div class=\"gallery\"  data-is-empty=\"false\" data-columns=\"2\">\n<figure class=\"gallery__item\"><a href=\"https://www.larjm.com/media/posts/27/gallery/Diapositivo1.PNG\" data-size=\"1008x1344\"><img loading=\"lazy\" src=\"https://www.larjm.com/media/posts/27/gallery/Diapositivo1-thumbnail.PNG\" alt=\"\" width=\"768\" height=\"1024\"></a></figure>\n<figure class=\"gallery__item\"><a href=\"https://www.larjm.com/media/posts/27/gallery/Diapositivo2.PNG\" data-size=\"1008x1344\"><img loading=\"lazy\" src=\"https://www.larjm.com/media/posts/27/gallery/Diapositivo2-thumbnail.PNG\" alt=\"\" width=\"768\" height=\"1024\"></a></figure>\n<figure class=\"gallery__item\"><a href=\"https://www.larjm.com/media/posts/27/gallery/Diapositivo3.PNG\" data-size=\"1008x1344\"><img loading=\"lazy\" src=\"https://www.larjm.com/media/posts/27/gallery/Diapositivo3-thumbnail.PNG\" alt=\"\" width=\"768\" height=\"1024\"></a></figure>\n<figure class=\"gallery__item\"><a href=\"https://www.larjm.com/media/posts/27/gallery/Diapositivo4.PNG\" data-size=\"1008x1344\"><img loading=\"lazy\" src=\"https://www.larjm.com/media/posts/27/gallery/Diapositivo4-thumbnail.PNG\" alt=\"\" width=\"768\" height=\"1024\"></a></figure>\n</div></div>",
            "author": {
                "name": "Joel Pacheco"
            },
            "tags": [
                   "Jornal O Girassol"
            ],
            "date_published": "2020-07-01T22:38:00+01:00",
            "date_modified": "2020-11-21T22:42:24+00:00"
        },
        {
            "id": "https://www.larjm.com/18a-edicao-jornal-do-lar-o-girassol-2.html",
            "url": "https://www.larjm.com/18a-edicao-jornal-do-lar-o-girassol-2.html",
            "title": "21ª Edição Jornal do Lar - O Girassol",
            "content_html": "<div class=\"gallery-wrapper\"><div class=\"gallery\"  data-is-empty=\"false\" data-columns=\"2\">\n<figure class=\"gallery__item\"><a href=\"https://www.larjm.com/media/posts/24/gallery/Slide1-2.PNG\" data-size=\"1008x1344\"><img loading=\"lazy\" src=\"https://www.larjm.com/media/posts/24/gallery/Slide1-2-thumbnail.PNG\" alt=\"\" width=\"768\" height=\"1024\"></a></figure>\n<figure class=\"gallery__item\"><a href=\"https://www.larjm.com/media/posts/24/gallery/Slide2-2.PNG\" data-size=\"1008x1344\"><img loading=\"lazy\" src=\"https://www.larjm.com/media/posts/24/gallery/Slide2-2-thumbnail.PNG\" alt=\"\" width=\"768\" height=\"1024\"></a></figure>\n<figure class=\"gallery__item\"><a href=\"https://www.larjm.com/media/posts/24/gallery/Slide3-2.PNG\" data-size=\"1008x1344\"><img loading=\"lazy\" src=\"https://www.larjm.com/media/posts/24/gallery/Slide3-2-thumbnail.PNG\" alt=\"\" width=\"768\" height=\"1024\"></a></figure>\n<figure class=\"gallery__item\"><a href=\"https://www.larjm.com/media/posts/24/gallery/Slide4-2.PNG\" data-size=\"1008x1344\"><img loading=\"lazy\" src=\"https://www.larjm.com/media/posts/24/gallery/Slide4-2-thumbnail.PNG\" alt=\"\" width=\"768\" height=\"1024\"></a></figure>\n</div></div>",
            "author": {
                "name": "Joel Pacheco"
            },
            "tags": [
                   "Jornal O Girassol"
            ],
            "date_published": "2020-03-30T19:22:00+01:00",
            "date_modified": "2020-11-21T19:03:34+00:00"
        },
        {
            "id": "https://www.larjm.com/18a-edicao-jornal-do-lar-o-girassol-4.html",
            "url": "https://www.larjm.com/18a-edicao-jornal-do-lar-o-girassol-4.html",
            "title": "20ª Edição Jornal do Lar - O Girassol",
            "content_html": "<div class=\"gallery-wrapper\"><div class=\"gallery\"  data-is-empty=\"false\" data-columns=\"2\">\n<figure class=\"gallery__item\"><a href=\"https://www.larjm.com/media/posts/26/gallery/Slide1.PNG\" data-size=\"1008x1344\"><img loading=\"lazy\" src=\"https://www.larjm.com/media/posts/26/gallery/Slide1-thumbnail.PNG\" alt=\"\" width=\"768\" height=\"1024\"></a></figure>\n<figure class=\"gallery__item\"><a href=\"https://www.larjm.com/media/posts/26/gallery/Slide2.PNG\" data-size=\"1008x1344\"><img loading=\"lazy\" src=\"https://www.larjm.com/media/posts/26/gallery/Slide2-thumbnail.PNG\" alt=\"\" width=\"768\" height=\"1024\"></a></figure>\n<figure class=\"gallery__item\"><a href=\"https://www.larjm.com/media/posts/26/gallery/Slide3.PNG\" data-size=\"1008x1344\"><img loading=\"lazy\" src=\"https://www.larjm.com/media/posts/26/gallery/Slide3-thumbnail.PNG\" alt=\"\" width=\"768\" height=\"1024\"></a></figure>\n<figure class=\"gallery__item\"><a href=\"https://www.larjm.com/media/posts/26/gallery/Slide4.PNG\" data-size=\"1008x1344\"><img loading=\"lazy\" src=\"https://www.larjm.com/media/posts/26/gallery/Slide4-thumbnail.PNG\" alt=\"\" width=\"768\" height=\"1024\"></a></figure>\n</div></div>",
            "author": {
                "name": "Joel Pacheco"
            },
            "tags": [
                   "Jornal O Girassol"
            ],
            "date_published": "2019-12-31T19:24:00+00:00",
            "date_modified": "2020-11-21T19:03:22+00:00"
        }
    ]
}
